{
  "prefix": "https://permalinks.example/",
  "secret": "supersecretkey",
  "level": "./mydb",
  "host": "localhost",
  "port": 8000,
  "tls" : {
    "key": null,
    "cert": null
  },
  "sentry": null
}
